hw5
…
[1] "deathtime" "edregtime" "edouttime" "dod"      

# keep only variables with less than 10000 missing values
icu_cohort_discard <- icu_cohort %>%
  select_if(colSums(is.na(icu_cohort)) <= 10000) 

delete data collected after ICU intime

icu_cohort_selected <- icu_cohort_discard |>
  select(-c("stay_id.y", "stay_id.x", "outtime", "dischtime", 
            "hospital_expire_flag", "last_careunit"))
print(icu_cohort_selected)

# A tibble: 94,458 × 34
   subject_id  hadm_id first_careunit                  intime                los
        <dbl>    <dbl> <fct>                           <dttm>              <dbl>
 1   10000032 29079034 Medical Intensive Care Unit (M… 2180-07-23 14:00:00 0.410
 2   10000690 25860671 Medical Intensive Care Unit (M… 2150-11-02 19:37:00 3.89 
 3   10000980 26913865 Medical Intensive Care Unit (M… 2189-06-27 08:42:00 0.498
 4   10001217 24597018 Surgical Intensive Care Unit (… 2157-11-20 19:18:02 1.12 
 5   10001217 27703517 Surgical Intensive Care Unit (… 2157-12-19 15:42:24 0.948
 6   10001725 25563031 Medical/Surgical Intensive Car… 2110-04-11 15:52:22 1.34 
 7   10001843 26133978 Medical/Surgical Intensive Car… 2134-12-05 18:50:03 0.825
 8   10001884 26184834 Medical Intensive Care Unit (M… 2131-01-11 04:20:05 9.17 
 9   10002013 23581541 Cardiac Vascular Intensive Car… 2160-05-18 10:00:53 1.31 
10   10002114 27793700 Coronary Care Unit (CCU)        2162-02-17 23:30:00 2.91 
# ℹ 94,448 more rows
# ℹ 29 more variables: admittime <dttm>, admission_type <fct>,
#   admit_provider_id <chr>, admission_location <fct>,
#   discharge_location <fct>, insurance <chr>, language <chr>,
#   marital_status <chr>, gender <chr>, anchor_age <dbl>, anchor_year <dbl>,
#   anchor_year_group <chr>, Bicarbonate <dbl>, Chloride <dbl>,
#   Creatinine <dbl>, Glucose <dbl>, Potassium <dbl>, Sodium <dbl>, …
…
                  "Glucose", "Potassium", "Sodium",
                  "Hematocrit", "wbc"), winsorize))
# delete all rows with NA in los_long, marital_status
icu_cohort_replace <- icu_cohort_replace |>
  filter(!is.na(los_long)) |>
  filter(!is.na(marital_status)) |>
  # also delete labevent NA rows
  filter(!if_all(c("Bicarbonate", "Chloride", "Creatinine", "Glucose", 
                   "Potassium", "Sodium", "Hematocrit", "wbc"), is.na)) 
# delete unnessary columns
icu_cohort_replace <- icu_cohort_replace |>
  select(-c("admit_provider_id", "discharge_location")) |>
  print()

# A tibble: 83,043 × 32
   subject_id  hadm_id first_careunit                  intime                los
        <dbl>    <dbl> <fct>                           <dttm>              <dbl>
 1   10000032 29079034 Medical Intensive Care Unit (M… 2180-07-23 14:00:00 0.410
 2   10000690 25860671 Medical Intensive Care Unit (M… 2150-11-02 19:37:00 3.89 
 3   10000980 26913865 Medical Intensive Care Unit (M… 2189-06-27 08:42:00 0.498
 4   10001217 24597018 Surgical Intensive Care Unit (… 2157-11-20 19:18:02 1.12 
 5   10001217 27703517 Surgical Intensive Care Unit (… 2157-12-19 15:42:24 0.948
 6   10001725 25563031 Medical/Surgical Intensive Car… 2110-04-11 15:52:22 1.34 
 7   10001843 26133978 Medical/Surgical Intensive Car… 2134-12-05 18:50:03 0.825
 8   10001884 26184834 Medical Intensive Care Unit (M… 2131-01-11 04:20:05 9.17 
 9   10002013 23581541 Cardiac Vascular Intensive Car… 2160-05-18 10:00:53 1.31 
10   10002155 20345487 Medical Intensive Care Unit (M… 2131-03-09 21:33:00 0.859
# ℹ 83,033 more rows
# ℹ 27 more variables: admittime <dttm>, admission_type <fct>,
#   admission_location <fct>, insurance <chr>, language <chr>,
#   marital_status <chr>, gender <chr>, anchor_age <dbl>, anchor_year <dbl>,
#   anchor_year_group <chr>, Bicarbonate <dbl>, Chloride <dbl>,
#   Creatinine <dbl>, Glucose <dbl>, Potassium <dbl>, Sodium <dbl>,
#   Hematocrit <dbl>, wbc <dbl>, stay_id <int>, HR <dbl>, NBPs <dbl>, …
…
